module poetic-journey

go 1.17

require (
	github.com/aliyun/aliyun-oss-go-sdk v2.2.4+incompatible
	github.com/dchest/captcha v0.0.0-20200903113550-03f5f0333e1f
	github.com/dgrijalva/jwt-go v3.2.0+incompatible
	github.com/gin-contrib/cors v1.3.1
	github.com/gin-contrib/sessions v0.0.4
	github.com/gin-gonic/gin v1.7.7
	github.com/google/uuid v1.3.0
	github.com/joho/godotenv v1.4.0
	golang.org/x/crypto v0.0.0-20200622213623-75b288015ac9
	gopkg.in/go-playground/validator.v8 v8.18.2
	gopkg.in/yaml.v2 v2.2.8
	gorm.io/driver/mysql v1.2.1
	gorm.io/gorm v1.22.4
)

require (
	github.com/baiyubin/aliyun-sts-go-sdk v0.0.0-20180326062324-cfa1a18b161f // indirect
	github.com/gin-contrib/sse v0.1.0 // indirect
	github.com/go-playground/locales v0.13.0 // indirect
	github.com/go-playground/universal-translator v0.17.0 // indirect
	github.com/go-playground/validator/v10 v10.4.1 // indirect
	github.com/go-sql-driver/mysql v1.6.0 // indirect
	github.com/golang/protobuf v1.3.3 // indirect
	github.com/gorilla/context v1.1.1 // indirect
	github.com/gorilla/securecookie v1.1.1 // indirect
	github.com/gorilla/sessions v1.2.0 // indirect
	github.com/jinzhu/inflection v1.0.0 // indirect
	github.com/jinzhu/now v1.1.3 // indirect
	github.com/json-iterator/go v1.1.9 // indirect
	github.com/leodido/go-urn v1.2.0 // indirect
	github.com/mattn/go-isatty v0.0.12 // indirect
	github.com/modern-go/concurrent v0.0.0-20180228061459-e0a39a4cb421 // indirect
	github.com/modern-go/reflect2 v0.0.0-20180701023420-4b7aa43c6742 // indirect
	github.com/satori/go.uuid v1.2.0 // indirect
	github.com/ugorji/go/codec v1.1.7 // indirect
	golang.org/x/sys v0.0.0-20200116001909-b77594299b42 // indirect
	golang.org/x/time v0.0.0-20220411224347-583f2d630306 // indirect
)
